[
  {
    "pay_date": "1/11/2016",
    "hours_worked": 1,
    "employee_id": 1,
    "job_group": "A"
  },
  {
    "pay_date": "1/11/2016",
    "hours_worked": 1,
    "employee_id": 2,
    "job_group": "A"
  }
]